{
    "site": {
        "title": "PHP MajorDomo"
    },
    "url": "http://127.0.0.1",
    "daemon-ip": "127.0.0.1",
    "pdo": {
        "dsn": "pgsql:host=localhost;dbname=phpmd",
        "username": "phpmd",
        "password": "phpmd",
        "init": [
            "SET TIMEZONE=\"Asia/Yekaterinburg\""
        ]
    },
    "session": {
        "name": "phpmd-session",
        "uid": "phpmd-uid",
        "token": "phpmd-token",
        "time": 2592000,
        "path": "/"
    },
    "yandex": {
        "tts_api_key": "aaaaaaaa-aaaa-aaaa-aaaa-aaaaaaaaaaaa"
    },
    "tts": {
        "pre_sound": "dingdong.mp3",
        "play_sound_cmd": "mpg123 -q %s"
    },
    "openweathermap": {
        "api_key": "aaaaaaaaaaaaaaaaaaaaaaaaaaaaaaaa",
        "city_id": "1486209"
    },
    "home": {
        "city": "Екатеринбург",
        "city_en": "Yekaterinburg",
        "lat": 56.83827, 
        "lon": 60.60345
    },
    "timezone": "Asia/Yekaterinburg",
    "admins": [1]
}